
Account no = 1200 
Balance = 1.0
Name = A A
Address = A A
Father's name = A A
Mother's name = A A
Spouse name = A A
Child's name = A A


Account no = 1201 
Balance = 1.0
Name = A A
Address = A A
Father's name = A A
Mother's name = A A
Spouse name = A A
Child's name = A A


Account no = 1202 
Balance = 1.0
Name = A A
Address = A A
Father's name = A A
Mother's name = A A
Spouse name = A A
Child's name = A A


Account no = 1203 
Balance = 1.0
Name = A A
Address = A A
Father's name = A A
Mother's name = A A
Spouse name = A A
Child's name = A A


Account no = 1204 
Balance = 1.0
Name = A A
Address = A A
Father's name = A A
Mother's name = A A
Spouse name = A A
Child's name = A A

